…
#### PCA by domain summary

A summary of the PCA by domain in long format for easy plotting.

``` r
 my_results$pca_summary
# A tibble: 162 x 9
   domain  var      loading    pc pc_sd pc_var_prop pc_cum_var~1 corre~2 loadi~3
   <chr>   <chr>      <dbl> <int> <dbl>       <dbl>        <dbl>   <dbl>   <dbl>
 1 overall NO22010 -0.539       1 1.78       0.289         0.289      -1 0.539
 2 overall NO22010 -0.00723     2 1.07       0.105         0.394      -1 0.00723
 3 overall NO22010 -0.0162      3 1.03       0.0966        0.491      -1 0.0162 
 4 overall NO22010 -0.0191      4 1.01       0.0924        0.583      -1 0.0191
 5 overall NO22010 -0.00922     5 1.00       0.0911        0.674      -1 0.00922
 6 overall NO22010 -0.0161      6 0.984      0.0880        0.762      -1 0.0161 
 7 overall NO22010 -0.0157      7 0.960      0.0838        0.846      -1 0.0157
 8 overall NO22010 -0.00780     8 0.938      0.0799        0.926      -1 0.00780
 9 overall NO22010  0.149       9 0.664      0.0401        0.966       1 0.149
10 overall NO22010  0.147      10 0.533      0.0258        0.992       1 0.147  
# ... with 152 more rows, and abbreviated variable names 1: pc_cum_var_prop,
#   2: correction_factor, 3: loading_std
…
#### Associations with SES

The estimated coefficients for the linear models with each principal
component as outcome and the SES variable supplied to `ses_var`. There
is an option to include more variables using the `other_vars` argument
in `run_pca()`.

```{r}
my_results$ses_information
[1] "ses_cat_indv" "ses_cat_area"
```

``` r
my_results$pc_ses_models_1
# A tibble: 66 x 11
   outcome   pc    domain term  estim~1 std.e~2 stati~3  p.value conf.~4 conf.~5
   <chr>     <chr> <chr>  <chr>   <dbl>   <dbl>   <dbl>    <dbl>   <dbl>   <dbl>
 1 pc1_over~ 1     overa~ (Int~ -2.02    0.136  -14.9   1.47e-45  -2.29   -1.76
 2 pc1_over~ 1     overa~ ses_~  1.84    0.147   12.5   1.27e-33   1.55    2.13
 3 pc1_over~ 1     overa~ ses_~  3.71    0.168   22.0   1.00e-87   3.38    4.04 
 4 pc2_over~ 2     overa~ (Int~  0.545   0.0969   5.63  2.33e- 8   0.355   0.735
 5 pc2_over~ 2     overa~ ses_~ -0.487   0.105   -4.65  3.77e- 6  -0.692  -0.281
 6 pc2_over~ 2     overa~ ses_~ -1.03    0.120   -8.54  4.77e-17  -1.26   -0.791
 7 pc3_over~ 3     overa~ (Int~  0.0457  0.0967   0.473 6.36e- 1  -0.144   0.235
 8 pc3_over~ 3     overa~ ses_~ -0.0522  0.105   -0.500 6.17e- 1  -0.257   0.153
 9 pc3_over~ 3     overa~ ses_~ -0.0496  0.120   -0.414 6.79e- 1  -0.285   0.186
10 pc4_over~ 4     overa~ (Int~ -0.448   0.0924  -4.86  1.39e- 6  -0.630  -0.267
# ... with 56 more rows, 1 more variable: correction_factor <dbl>, and
#   abbreviated variable names 1: estimate, 2: std.error, 3: statistic,
#   4: conf.low, 5: conf.high
…
